Project3
…
# Need to Tidy this data so that each response is in a separate row rather than all in one
employed %>% 
  group_by(CurrentEmployerType) %>%
  summarise(n())

## # A tibble: 34 x 2
##    CurrentEmployerType                                               `n()`
##    <chr>                                                             <int>
##  1 Employed by a company that performs advanced analytics              549
##  2 Employed by a company that performs advanced analytics,Employed      4
##  3 Employed by a company that performs advanced analytics,Self-empl     3
##  4 Employed by college or university                                   291
##  5 Employed by college or university,Employed by a company that per     1
##  6 Employed by college or university,Employed by a company that per     1
##  7 Employed by college or university,Employed by government              2
##  8 Employed by college or university,Employed by non-profit or NGO       6
##  9 Employed by college or university,Employed by non-profit or NGO,     1
## 10 Employed by company that makes advanced analytic software           182
## # ... with 24 more rows
…
